<svg xmlns="http://www.w3.org/2000/svg" xmlns:xlink="http://www.w3.org/1999/xlink" version="1.1" preserveAspectRatio="xMidYMid meet" focusable="false" aria-hidden="true" role="img" width="31" height="33"><rect id="backgroundrect" width="100%" height="100%" x="0" y="0" fill="none" stroke="none"/>
            
            
            
            
            
            
            
            
            
            
            
            
            
            
            
            
            
            
            
            <g class="currentLayer" style=""><title>Layer 1</title><path d="M29.83,22.923954360485077 a1.1600000000000001,1.1600000000000001 0 0 0 -0.7100000000000003,-1.12 l-1.6800000000000006,-0.5 c-0.09000000000000007,-0.24000000000000007 -0.18000000000000008,-0.48000000000000015 -0.29000000000000015,-0.7100000000000003 l0.78,-1.44 a1.1600000000000001,1.1600000000000001 0 0 0 -0.21000000000000008,-1.37 l-1.42,-1.4100000000000001 a1.1600000000000001,1.1600000000000001 0 0 0 -1.37,-0.2 l-1.45,0.7600000000000003 a7.84,7.84 0 0 0 -0.7600000000000003,-0.3200000000000002 l-0.48000000000000015,-1.58 a1.15,1.15 0 0 0 -1.11,-0.77 h-2 a1.1600000000000001,1.1600000000000001 0 0 0 -1.11,0.8200000000000003 l-0.47000000000000014,1.54 a7.76,7.76 0 0 0 -0.77,0.3200000000000002 l-1.42,-0.7600000000000003 a1.1600000000000001,1.1600000000000001 0 0 0 -1.36,0.2 l-1.45,1.4 a1.1600000000000001,1.1600000000000001 0 0 0 -0.21000000000000008,1.3800000000000001 L13.079999999999998,20.493954360485077 a7.6400000000000015,7.6400000000000015 0 0 0 -0.31000000000000016,0.7400000000000003 l-1.58,0.47000000000000014 a1.15,1.15 0 0 0 -0.8300000000000003,1.11 v2 a1.15,1.15 0 0 0 0.8300000000000003,1.1 l1.59,0.47000000000000014 a7.53,7.53 0 0 0 0.31000000000000016,0.7200000000000003 l-0.78,1.46 a1.1600000000000001,1.1600000000000001 0 0 0 0.21000000000000008,1.37 l1.42,1.4 a1.1600000000000001,1.1600000000000001 0 0 0 1.37,0.21000000000000008 l1.48,-0.78 c0.23,0.11000000000000004 0.47000000000000014,0.2 0.7200000000000003,0.29000000000000015 L18,32.673954360485084 a1.1600000000000001,1.1600000000000001 0 0 0 1.11,0.81 h2 a1.1600000000000001,1.1600000000000001 0 0 0 1.11,-0.8200000000000003 l0.47000000000000014,-1.58 c0.24000000000000007,-0.08000000000000004 0.47000000000000014,-0.18000000000000008 0.7000000000000003,-0.29000000000000015 l1.5,0.79 a1.1600000000000001,1.1600000000000001 0 0 0 1.36,-0.2 l1.42,-1.4 a1.1600000000000001,1.1600000000000001 0 0 0 0.21000000000000008,-1.3800000000000001 l-0.79,-1.45 q0.1600000000000001,-0.3400000000000003 0.29000000000000015,-0.6900000000000006 L29,25.993954360485077 a1.15,1.15 0 0 0 0.8300000000000003,-1.11 zm-1.6,1.6300000000000003 l-2.11,0.6200000000000003 l-0.12000000000000002,0.42000000000000015 a6,6 0 0 1 -0.5,1.19 l-0.21000000000000008,0.38000000000000017 l1,1.9100000000000001 l-1,1 l-2,-1 l-0.37000000000000016,0.2 a6.21,6.21 0 0 1 -1.2,0.49000000000000016 l-0.42000000000000015,0.12000000000000002 l-0.6300000000000003,2.09 H19.42 l-0.6300000000000003,-2.08 l-0.42000000000000015,-0.12000000000000002 a6.23,6.23 0 0 1 -1.21,-0.49000000000000016 l-0.37000000000000016,-0.2 l-1.94,1 l-1,-1 l1,-1.94 l-0.22000000000000008,-0.38000000000000017 A6,6 0 0 1 14.170000000000002,25.493954360485077 L14,25.123954360485076 L12,24.493954360485077 V23.183954360485078 L14,22.573954360485075 l0.13,-0.41000000000000014 a5.94,5.94 0 0 1 0.53,-1.23 L14.899999999999999,20.493954360485077 l-1,-1.85 l1,-0.9400000000000003 l1.8900000000000001,1 l0.38000000000000017,-0.21000000000000008 a6.23,6.23 0 0 1 1.26,-0.52 l0.41000000000000014,-0.12000000000000002 l0.6300000000000003,-2 h1.3800000000000001 l0.6200000000000003,2 l0.41000000000000014,0.12000000000000002 A6.21,6.21 0 0 1 23.1,18.493954360485077 l0.38000000000000017,0.21000000000000008 l1.92,-1 l1,1 l-1,1.8900000000000001 l0.21000000000000008,0.38000000000000017 a6.08,6.08 0 0 1 0.5,1.21 l0.12000000000000002,0.42000000000000015 l2.06,0.6100000000000003 z" class="clr-i-outline clr-i-outline-path-1" id="svg_1" fill="#919191" fill-opacity="1" opacity="1"/><path d="M20.12,19.84395436048508 a4,4 0 1 0 4.08,4 A4.06,4.06 0 0 0 20.12,19.84395436048508 zm0,6.46 a2.43,2.43 0 1 1 2.48,-2.43 A2.46,2.46 0 0 1 20.12,26.313954360485077 z" class="clr-i-outline clr-i-outline-path-2" id="svg_2" fill="#919191" fill-opacity="1" opacity="1"/><path d="M10.49,30.493954360485077 H2 V4.493954360485077 H22 v7.8900000000000015 a3.2,3.2 0 0 1 2,1.7200000000000002 V4.493954360485077 a2,2 0 0 0 -2,-2 H2 A2,2 0 0 0 0,4.493954360485077 V30.493954360485077 a2,2 0 0 0 2,2 H12.23 l-1.1,-1.08 A3.11,3.11 0 0 1 10.49,30.493954360485077 z" class="clr-i-outline clr-i-outline-path-3" id="svg_3" fill="#919191" fill-opacity="1" opacity="1"/><path d="M20.12,19.84395436048508 a4,4 0 1 0 4.08,4 A4.06,4.06 0 0 0 20.12,19.84395436048508 zm0,6.46 a2.43,2.43 0 1 1 2.48,-2.43 A2.46,2.46 0 0 1 20.12,26.313954360485077 z" class="clr-i-outline--alerted clr-i-outline-path-1--alerted" id="svg_4" fill="#919191" fill-opacity="1" opacity="1"/><path d="M29.83,22.923954360485077 a1.1600000000000001,1.1600000000000001 0 0 0 -0.7100000000000003,-1.12 l-1.6800000000000006,-0.5 c-0.09000000000000007,-0.24000000000000007 -0.18000000000000008,-0.48000000000000015 -0.29000000000000015,-0.7100000000000003 l0.78,-1.44 a1.1600000000000001,1.1600000000000001 0 0 0 -0.21000000000000008,-1.37 l-1.42,-1.4100000000000001 a1.1600000000000001,1.1600000000000001 0 0 0 -1.37,-0.2 l-1.45,0.7600000000000003 a7.84,7.84 0 0 0 -0.7600000000000003,-0.3200000000000002 l-0.48000000000000015,-1.58 a1.15,1.15 0 0 0 -1.11,-0.77 h-2 a1.1600000000000001,1.1600000000000001 0 0 0 -1.11,0.8200000000000003 l-0.47000000000000014,1.54 a7.76,7.76 0 0 0 -0.77,0.3200000000000002 l-1.42,-0.7600000000000003 a1.1600000000000001,1.1600000000000001 0 0 0 -1.36,0.2 l-1.45,1.4 a1.1600000000000001,1.1600000000000001 0 0 0 -0.21000000000000008,1.3800000000000001 L13.079999999999998,20.493954360485077 a7.6400000000000015,7.6400000000000015 0 0 0 -0.31000000000000016,0.7400000000000003 l-1.58,0.47000000000000014 a1.15,1.15 0 0 0 -0.8300000000000003,1.11 v2 a1.15,1.15 0 0 0 0.8300000000000003,1.1 l1.59,0.47000000000000014 a7.53,7.53 0 0 0 0.31000000000000016,0.7200000000000003 l-0.78,1.46 a1.1600000000000001,1.1600000000000001 0 0 0 0.21000000000000008,1.37 l1.42,1.4 a1.1600000000000001,1.1600000000000001 0 0 0 1.37,0.21000000000000008 l1.48,-0.78 c0.23,0.11000000000000004 0.47000000000000014,0.2 0.7200000000000003,0.29000000000000015 L18,32.673954360485084 a1.1600000000000001,1.1600000000000001 0 0 0 1.11,0.81 h2 a1.1600000000000001,1.1600000000000001 0 0 0 1.11,-0.8200000000000003 l0.47000000000000014,-1.58 c0.24000000000000007,-0.08000000000000004 0.47000000000000014,-0.18000000000000008 0.7000000000000003,-0.29000000000000015 l1.5,0.79 a1.1600000000000001,1.1600000000000001 0 0 0 1.36,-0.2 l1.42,-1.4 a1.1600000000000001,1.1600000000000001 0 0 0 0.21000000000000008,-1.3800000000000001 l-0.79,-1.45 q0.1600000000000001,-0.3400000000000003 0.29000000000000015,-0.6900000000000006 L29,25.993954360485077 a1.15,1.15 0 0 0 0.8300000000000003,-1.11 zm-1.6,1.6300000000000003 l-2.11,0.6200000000000003 l-0.12000000000000002,0.42000000000000015 a6,6 0 0 1 -0.5,1.19 l-0.21000000000000008,0.38000000000000017 l1,1.9100000000000001 l-1,1 l-2,-1 l-0.37000000000000016,0.2 a6.21,6.21 0 0 1 -1.2,0.49000000000000016 l-0.42000000000000015,0.12000000000000002 l-0.6300000000000003,2.09 H19.42 l-0.6300000000000003,-2.08 l-0.42000000000000015,-0.12000000000000002 a6.23,6.23 0 0 1 -1.21,-0.49000000000000016 l-0.37000000000000016,-0.2 l-1.94,1 l-1,-1 l1,-1.94 l-0.22000000000000008,-0.38000000000000017 A6,6 0 0 1 14.170000000000002,25.493954360485077 L14,25.123954360485076 L12,24.493954360485077 V23.183954360485078 L14,22.573954360485075 l0.13,-0.41000000000000014 a5.94,5.94 0 0 1 0.53,-1.23 L14.899999999999999,20.493954360485077 l-1,-1.85 l1,-0.9400000000000003 l1.8900000000000001,1 l0.38000000000000017,-0.21000000000000008 a6.23,6.23 0 0 1 1.26,-0.52 l0.41000000000000014,-0.12000000000000002 l0.6300000000000003,-2 h1.3800000000000001 l0.6200000000000003,2 l0.41000000000000014,0.12000000000000002 A6.21,6.21 0 0 1 23.1,18.493954360485077 l0.38000000000000017,0.21000000000000008 l1.92,-1 l1,1 l-1,1.8900000000000001 l0.21000000000000008,0.38000000000000017 a6.08,6.08 0 0 1 0.5,1.21 l0.12000000000000002,0.42000000000000015 l2.06,0.6100000000000003 z" class="clr-i-outline--alerted clr-i-outline-path-2--alerted" id="svg_5" fill="#919191" fill-opacity="1" opacity="1"/><path d="M10.49,30.493954360485077 H2 V4.493954360485077 H17.87 L19,2.493954360485077 H2 A2,2 0 0 0 0,4.493954360485077 V30.493954360485077 a2,2 0 0 0 2,2 H12.23 l-1.1,-1.08 A3.11,3.11 0 0 1 10.49,30.493954360485077 z" class="clr-i-outline--alerted clr-i-outline-path-3--alerted" id="svg_6" fill="#919191" fill-opacity="1" opacity="1"/><path d="M22.85,0.6339543604850773 L17.13,10.493954360485077 A1.28,1.28 0 0 0 18.23,12.493954360485077 H29.68 A1.28,1.28 0 0 0 30.78,10.493954360485077 L25.06,0.6339543604850773 A1.28,1.28 0 0 0 22.85,0.6339543604850773 z" class="clr-i-outline--alerted clr-i-outline-path-4--alerted clr-i-alert" id="svg_7" fill="#919191" fill-opacity="1" opacity="1"/><path d="M29.83,22.923954360485077 a1.1600000000000001,1.1600000000000001 0 0 0 -0.7100000000000003,-1.12 l-1.6800000000000006,-0.5 c-0.09000000000000007,-0.24000000000000007 -0.18000000000000008,-0.48000000000000015 -0.29000000000000015,-0.7100000000000003 l0.78,-1.44 a1.1600000000000001,1.1600000000000001 0 0 0 -0.21000000000000008,-1.37 l-1.42,-1.4100000000000001 a1.1600000000000001,1.1600000000000001 0 0 0 -1.37,-0.2 l-1.45,0.7600000000000003 a7.84,7.84 0 0 0 -0.7600000000000003,-0.3200000000000002 l-0.48000000000000015,-1.58 a1.15,1.15 0 0 0 -1.11,-0.77 h-2 a1.1600000000000001,1.1600000000000001 0 0 0 -1.11,0.8200000000000003 l-0.47000000000000014,1.54 a7.76,7.76 0 0 0 -0.77,0.3200000000000002 l-1.42,-0.7600000000000003 a1.1600000000000001,1.1600000000000001 0 0 0 -1.36,0.2 l-1.45,1.4 a1.1600000000000001,1.1600000000000001 0 0 0 -0.21000000000000008,1.3800000000000001 L13.079999999999998,20.493954360485077 a7.6400000000000015,7.6400000000000015 0 0 0 -0.31000000000000016,0.7400000000000003 l-1.58,0.47000000000000014 a1.15,1.15 0 0 0 -0.8300000000000003,1.11 v2 a1.15,1.15 0 0 0 0.8300000000000003,1.1 l1.59,0.47000000000000014 a7.53,7.53 0 0 0 0.31000000000000016,0.7200000000000003 l-0.78,1.46 a1.1600000000000001,1.1600000000000001 0 0 0 0.21000000000000008,1.37 l1.42,1.4 a1.1600000000000001,1.1600000000000001 0 0 0 1.37,0.21000000000000008 l1.48,-0.78 c0.23,0.11000000000000004 0.47000000000000014,0.2 0.7200000000000003,0.29000000000000015 L18,32.673954360485084 a1.1600000000000001,1.1600000000000001 0 0 0 1.11,0.81 h2 a1.1600000000000001,1.1600000000000001 0 0 0 1.11,-0.8200000000000003 l0.47000000000000014,-1.58 c0.24000000000000007,-0.08000000000000004 0.47000000000000014,-0.18000000000000008 0.7000000000000003,-0.29000000000000015 l1.5,0.79 a1.1600000000000001,1.1600000000000001 0 0 0 1.36,-0.2 l1.42,-1.4 a1.1600000000000001,1.1600000000000001 0 0 0 0.21000000000000008,-1.3800000000000001 l-0.79,-1.45 q0.1600000000000001,-0.3400000000000003 0.29000000000000015,-0.6900000000000006 L29,25.993954360485077 a1.15,1.15 0 0 0 0.8300000000000003,-1.11 zm-1.6,1.6300000000000003 l-2.11,0.6200000000000003 l-0.12000000000000002,0.42000000000000015 a6,6 0 0 1 -0.5,1.19 l-0.21000000000000008,0.38000000000000017 l1,1.9100000000000001 l-1,1 l-2,-1 l-0.37000000000000016,0.2 a6.21,6.21 0 0 1 -1.2,0.49000000000000016 l-0.42000000000000015,0.12000000000000002 l-0.6300000000000003,2.09 H19.42 l-0.6300000000000003,-2.08 l-0.42000000000000015,-0.12000000000000002 a6.23,6.23 0 0 1 -1.21,-0.49000000000000016 l-0.37000000000000016,-0.2 l-1.94,1 l-1,-1 l1,-1.94 l-0.22000000000000008,-0.38000000000000017 A6,6 0 0 1 14.170000000000002,25.493954360485077 L14,25.123954360485076 L12,24.493954360485077 V23.183954360485078 L14,22.573954360485075 l0.13,-0.41000000000000014 a5.94,5.94 0 0 1 0.53,-1.23 L14.899999999999999,20.493954360485077 l-1,-1.85 l1,-0.9400000000000003 l1.8900000000000001,1 l0.38000000000000017,-0.21000000000000008 a6.23,6.23 0 0 1 1.26,-0.52 l0.41000000000000014,-0.12000000000000002 l0.6300000000000003,-2 h1.3800000000000001 l0.6200000000000003,2 l0.41000000000000014,0.12000000000000002 A6.21,6.21 0 0 1 23.1,18.493954360485077 l0.38000000000000017,0.21000000000000008 l1.92,-1 l1,1 l-1,1.8900000000000001 l0.21000000000000008,0.38000000000000017 a6.08,6.08 0 0 1 0.5,1.21 l0.12000000000000002,0.42000000000000015 l2.06,0.6100000000000003 z" class="clr-i-outline--badged clr-i-outline-path-1--badged" id="svg_8" fill="#919191" fill-opacity="1" opacity="1"/><path d="M20.12,19.84395436048508 a4,4 0 1 0 4.08,4 A4.06,4.06 0 0 0 20.12,19.84395436048508 zm0,6.46 a2.43,2.43 0 1 1 2.48,-2.43 A2.46,2.46 0 0 1 20.12,26.313954360485077 z" class="clr-i-outline--badged clr-i-outline-path-2--badged" id="svg_9" fill="#919191" fill-opacity="1" opacity="1"/><path d="M10.49,30.493954360485077 H2 V4.493954360485077 H19.08 a6.94,6.94 0 0 1 0.6000000000000003,-2 H2 A2,2 0 0 0 0,4.493954360485077 V30.493954360485077 a2,2 0 0 0 2,2 H12.23 l-1.1,-1.08 A3.11,3.11 0 0 1 10.49,30.493954360485077 z" class="clr-i-outline--badged clr-i-outline-path-3--badged" id="svg_10" fill="#919191" fill-opacity="1" opacity="1"/><path d="M24,14.823954360485077 V12.203954360485078 a7,7 0 0 1 -2,-1 v1.8800000000000003 A3.2,3.2 0 0 1 24,14.823954360485077 z" class="clr-i-outline--badged clr-i-outline-path-4--badged" id="svg_11" fill="#919191" fill-opacity="1" opacity="1"/><circle cx="26" cy="5.493954181671143" r="5" class="clr-i-outline--badged clr-i-outline-path-5--badged clr-i-badge" id="svg_12" fill="#919191" fill-opacity="1" opacity="1"/><path d="M11.55,30.493954360485077 H2 V4.493954360485077 H22 v8.78 a2.37,2.37 0 0 1 2,1.57 V4.493954360485077 a2,2 0 0 0 -2,-2 H2 A2,2 0 0 0 0,4.493954360485077 V30.493954360485077 a2,2 0 0 0 2,2 H13.16 l-1,-1 A2.38,2.38 0 0 1 11.55,30.493954360485077 z" class="clr-i-solid clr-i-solid-path-1" id="svg_13" fill="#919191" fill-opacity="1" opacity="1"/><path d="M29.54,22.963954360485076 l-2,-0.6100000000000003 a7.06,7.06 0 0 0 -0.5800000000000003,-1.4100000000000001 l1,-1.86 a0.37000000000000016,0.37000000000000016 0 0 0 -0.07,-0.44000000000000017 L26.41,17.193954360485076 a0.37000000000000016,0.37000000000000016 0 0 0 -0.44000000000000017,-0.07 l-1.85,1 A7,7 0 0 0 22.69,17.493954360485077 l-0.6100000000000003,-2 a0.37000000000000016,0.37000000000000016 0 0 0 -0.36000000000000015,-0.25 h-2 a0.37000000000000016,0.37000000000000016 0 0 0 -0.35000000000000014,0.26 l-0.6100000000000003,2 a7,7 0 0 0 -1.44,0.6100000000000003 l-1.82,-1 a0.37000000000000016,0.37000000000000016 0 0 0 -0.44000000000000017,0.07 l-1.47,1.44 a0.37000000000000016,0.37000000000000016 0 0 0 -0.07,0.44000000000000017 l1,1.82 a7,7 0 0 0 -0.6100000000000003,1.44 l-2,0.6100000000000003 a0.37000000000000016,0.37000000000000016 0 0 0 -0.26,0.35000000000000014 v2 a0.37000000000000016,0.37000000000000016 0 0 0 0.26,0.35000000000000014 l2,0.6100000000000003 a7,7 0 0 0 0.6100000000000003,1.4100000000000001 l-1,1.9 a0.37000000000000016,0.37000000000000016 0 0 0 0.07,0.44000000000000017 L15,31.493954360485077 a0.37000000000000016,0.37000000000000016 0 0 0 0.44000000000000017,0.07 l1.87,-1 a7.06,7.06 0 0 0 1.3900000000000001,0.5700000000000003 l0.6100000000000003,2 a0.37000000000000016,0.37000000000000016 0 0 0 0.35000000000000014,0.26 h2 a0.37000000000000016,0.37000000000000016 0 0 0 0.35000000000000014,-0.26 l0.6100000000000003,-2 a7,7 0 0 0 1.3800000000000001,-0.5700000000000003 l1.8900000000000001,1 a0.37000000000000016,0.37000000000000016 0 0 0 0.44000000000000017,-0.07 l1.45,-1.45 a0.37000000000000016,0.37000000000000016 0 0 0 0.07,-0.44000000000000017 l-1,-1.8800000000000003 a7.06,7.06 0 0 0 0.5800000000000003,-1.3900000000000001 l2,-0.6100000000000003 a0.37000000000000016,0.37000000000000016 0 0 0 0.26,-0.35000000000000014 V23.323954360485075 A0.37000000000000016,0.37000000000000016 0 0 0 29.54,22.963954360485076 zM20.7,27.683954360485078 A3.33,3.33 0 1 1 24,24.353954360485076 A3.33,3.33 0 0 1 20.7,27.683954360485078 z" class="clr-i-solid clr-i-solid-path-2" id="svg_14" fill="#919191" fill-opacity="1" opacity="1"/><path d="M29.54,22.963954360485076 l-2,-0.6100000000000003 a7.06,7.06 0 0 0 -0.5800000000000003,-1.4100000000000001 l1,-1.86 a0.37000000000000016,0.37000000000000016 0 0 0 -0.07,-0.44000000000000017 L26.41,17.193954360485076 a0.37000000000000016,0.37000000000000016 0 0 0 -0.44000000000000017,-0.07 l-1.85,1 A7,7 0 0 0 22.69,17.493954360485077 l-0.6100000000000003,-2 a0.37000000000000016,0.37000000000000016 0 0 0 -0.36000000000000015,-0.25 h-2 a0.37000000000000016,0.37000000000000016 0 0 0 -0.35000000000000014,0.26 l-0.6100000000000003,2 a7,7 0 0 0 -1.44,0.6100000000000003 l-1.82,-1 a0.37000000000000016,0.37000000000000016 0 0 0 -0.44000000000000017,0.07 l-1.47,1.44 a0.37000000000000016,0.37000000000000016 0 0 0 -0.07,0.44000000000000017 l1,1.82 a7,7 0 0 0 -0.6100000000000003,1.44 l-2,0.6100000000000003 a0.37000000000000016,0.37000000000000016 0 0 0 -0.26,0.35000000000000014 v2 a0.37000000000000016,0.37000000000000016 0 0 0 0.26,0.35000000000000014 l2,0.6100000000000003 a7,7 0 0 0 0.6100000000000003,1.4100000000000001 l-1,1.9 a0.37000000000000016,0.37000000000000016 0 0 0 0.07,0.44000000000000017 L15,31.493954360485077 a0.37000000000000016,0.37000000000000016 0 0 0 0.44000000000000017,0.07 l1.87,-1 a7.06,7.06 0 0 0 1.3900000000000001,0.5700000000000003 l0.6100000000000003,2 a0.37000000000000016,0.37000000000000016 0 0 0 0.35000000000000014,0.26 h2 a0.37000000000000016,0.37000000000000016 0 0 0 0.35000000000000014,-0.26 l0.6100000000000003,-2 a7,7 0 0 0 1.3800000000000001,-0.5700000000000003 l1.8900000000000001,1 a0.37000000000000016,0.37000000000000016 0 0 0 0.44000000000000017,-0.07 l1.45,-1.45 a0.37000000000000016,0.37000000000000016 0 0 0 0.07,-0.44000000000000017 l-1,-1.8800000000000003 a7.06,7.06 0 0 0 0.5800000000000003,-1.3900000000000001 l2,-0.6100000000000003 a0.37000000000000016,0.37000000000000016 0 0 0 0.26,-0.35000000000000014 V23.323954360485075 A0.37000000000000016,0.37000000000000016 0 0 0 29.54,22.963954360485076 zM20.7,27.683954360485078 A3.33,3.33 0 1 1 24,24.353954360485076 A3.33,3.33 0 0 1 20.7,27.683954360485078 z" class="clr-i-solid--alerted clr-i-solid-path-1--alerted" id="svg_15" fill="#919191" fill-opacity="1" opacity="1"/><path d="M11.55,30.493954360485077 H2 V4.493954360485077 H17.87 L19,2.493954360485077 H2 A2,2 0 0 0 0,4.493954360485077 V30.493954360485077 a2,2 0 0 0 2,2 H13.16 l-1,-1 A2.38,2.38 0 0 1 11.55,30.493954360485077 z" class="clr-i-solid--alerted clr-i-solid-path-2--alerted" id="svg_16" fill="#919191" fill-opacity="1" opacity="1"/><path d="M22.85,0.6339543604850773 L17.13,10.493954360485077 A1.28,1.28 0 0 0 18.23,12.493954360485077 H29.68 A1.28,1.28 0 0 0 30.78,10.493954360485077 L25.06,0.6339543604850773 A1.28,1.28 0 0 0 22.85,0.6339543604850773 z" class="clr-i-solid--alerted clr-i-solid-path-3--alerted clr-i-alert" id="svg_17" fill="#919191" fill-opacity="1" opacity="1"/><circle cx="26" cy="5.493954181671143" r="5" class="clr-i-solid--badged clr-i-solid-path-1--badged clr-i-badge" id="svg_18" fill="#919191" fill-opacity="1" opacity="1"/><path d="M29.54,22.963954360485076 l-2,-0.6100000000000003 a7.06,7.06 0 0 0 -0.5800000000000003,-1.4100000000000001 l1,-1.86 a0.37000000000000016,0.37000000000000016 0 0 0 -0.07,-0.44000000000000017 L26.41,17.193954360485076 a0.37000000000000016,0.37000000000000016 0 0 0 -0.44000000000000017,-0.07 l-1.85,1 A7,7 0 0 0 22.69,17.493954360485077 l-0.6100000000000003,-2 a0.37000000000000016,0.37000000000000016 0 0 0 -0.36000000000000015,-0.25 h-2 a0.37000000000000016,0.37000000000000016 0 0 0 -0.35000000000000014,0.26 l-0.6100000000000003,2 a7,7 0 0 0 -1.44,0.6100000000000003 l-1.82,-1 a0.37000000000000016,0.37000000000000016 0 0 0 -0.44000000000000017,0.07 l-1.47,1.44 a0.37000000000000016,0.37000000000000016 0 0 0 -0.07,0.44000000000000017 l1,1.82 a7,7 0 0 0 -0.6100000000000003,1.44 l-2,0.6100000000000003 a0.37000000000000016,0.37000000000000016 0 0 0 -0.26,0.35000000000000014 v2 a0.37000000000000016,0.37000000000000016 0 0 0 0.26,0.35000000000000014 l2,0.6100000000000003 a7,7 0 0 0 0.6100000000000003,1.4100000000000001 l-1,1.9 a0.37000000000000016,0.37000000000000016 0 0 0 0.07,0.44000000000000017 L15,31.493954360485077 a0.37000000000000016,0.37000000000000016 0 0 0 0.44000000000000017,0.07 l1.87,-1 a7.06,7.06 0 0 0 1.3900000000000001,0.5700000000000003 l0.6100000000000003,2 a0.37000000000000016,0.37000000000000016 0 0 0 0.35000000000000014,0.26 h2 a0.37000000000000016,0.37000000000000016 0 0 0 0.35000000000000014,-0.26 l0.6100000000000003,-2 a7,7 0 0 0 1.3800000000000001,-0.5700000000000003 l1.8900000000000001,1 a0.37000000000000016,0.37000000000000016 0 0 0 0.44000000000000017,-0.07 l1.45,-1.45 a0.37000000000000016,0.37000000000000016 0 0 0 0.07,-0.44000000000000017 l-1,-1.8800000000000003 a7.06,7.06 0 0 0 0.5800000000000003,-1.3900000000000001 l2,-0.6100000000000003 a0.37000000000000016,0.37000000000000016 0 0 0 0.26,-0.35000000000000014 V23.323954360485075 A0.37000000000000016,0.37000000000000016 0 0 0 29.54,22.963954360485076 zM20.7,27.683954360485078 A3.33,3.33 0 1 1 24,24.353954360485076 A3.33,3.33 0 0 1 20.7,27.683954360485078 z" class="clr-i-solid--badged clr-i-solid-path-2--badged" id="svg_19" fill="#919191" fill-opacity="1" opacity="1"/><path d="M11.55,30.493954360485077 H2 V4.493954360485077 H19.08 a6.94,6.94 0 0 1 0.6000000000000003,-2 H2 A2,2 0 0 0 0,4.493954360485077 V30.493954360485077 a2,2 0 0 0 2,2 H13.16 l-1,-1 A2.38,2.38 0 0 1 11.55,30.493954360485077 z" class="clr-i-solid--badged clr-i-solid-path-3--badged" id="svg_20" fill="#919191" fill-opacity="1" opacity="1"/><path d="M24,14.853954360485076 V12.203954360485078 a7,7 0 0 1 -2,-1 v2 A2.37,2.37 0 0 1 24,14.853954360485076 z" class="clr-i-solid--badged clr-i-solid-path-4--badged" id="svg_21" fill="#919191" fill-opacity="1" opacity="1"/></g></svg>