[
{
        "ops:instanceType": "INSTANCED",
        "ops:dataType2": "FLOAT",
        "ops:key": "mem|workload",
        "ops:defaultMonitored": true,
        "ops:description": "Workload",
        "ops:property": false,
        "ops:name": "Memory|Workload",
        "ops:unit": "%",
        "ops:rollupType": "AVG",
        "ops:monitoring": false
    },
    {
        "ops:instanceType": "INSTANCED",
        "ops:dataType2": "FLOAT",
        "ops:key": "datastore|write_average",
        "ops:defaultMonitored": true,
        "ops:description": "Amount of data written to storage in a second. This is averaged over the reporting period",
        "ops:property": false,
        "ops:name": "Datastore|Write Throughput",
        "ops:unit": "KBps",
        "ops:rollupType": "AVG",
        "ops:monitoring": false
    },
    {
        "ops:instanceType": "INSTANCED",
        "ops:dataType2": "FLOAT",
        "ops:key": "cost|monthlyTotalCost",
        "ops:defaultMonitored": true,
        "ops:description": "Month To Date Cost of Virtual Machine",
        "ops:property": false,
        "ops:name": "Cost|MTD VM Total Cost",
        "ops:unit": "원",
        "ops:rollupType": "AVG",
        "ops:monitoring": false
    },
    {
        "ops:instanceType": "INSTANCED",
        "ops:dataType2": "FLOAT",
        "ops:key": "net|usage_average",
        "ops:defaultMonitored": true,
        "ops:description": "The sum of the data transmitted and received for all the NIC instances of the host or virtual machine",
        "ops:property": false,
        "ops:name": "Network|Usage Rate",
        "ops:unit": "KBps",
        "ops:rollupType": "AVG",
        "ops:monitoring": false
    },
 {
        "ops:instanceType": "INSTANCED",
        "ops:dataType2": "FLOAT",
        "ops:key": "cpu|usage_average",
        "ops:defaultMonitored": true,
        "ops:description": "CPU Usage divided by VM CPU Configuration in MHz",
        "ops:property": false,
        "ops:name": "CPU|Usage",
        "ops:unit": "%",
        "ops:rollupType": "AVG",
        "ops:monitoring": false
 },
 {
        "ops:instanceType": "INSTANCED",
        "ops:dataType2": "FLOAT",
        "ops:key": "mem|usage_average",
        "ops:defaultMonitored": true,
        "ops:description": "Memory currently in use as a percentage of total available memory",
        "ops:property": false,
        "ops:name": "Memory|Usage",
        "ops:unit": "%",
        "ops:rollupType": "AVG",
        "ops:monitoring": false
 } 
]